{
  "development": {
    "username": "postgres",
    "password": "admin",
    "database": "hackerbook",
    "host": "192.168.99.100",
    "dialect": "postgres",
    "port":"8080",
    "schema":"hb"
  },
  "test": {
    "username": "postgres",
    "password": "admin",
    "database": "hackerbook",
    "host": "192.168.99.100:8080",
    "dialect": "postgres"
  },
  "production": {
    "username": "postgres",
    "password": "admin",
    "database": "hackerbook",
    "host": "192.168.99.100:8080",
    "dialect": "postgres"
  }
}
